# Wavefront MTL file
# Creator: Ultimate Unwrap3D Pro v3.29
# URL: http://www.unwrap3d.com
# Time: Mon May 09 14:24:21 2011
# num_materials: 1

newmtl wall
Ka 0.000000 0.000000 0.000000
Kd 1.000000 1.000000 1.000000
Ks 0.000000 0.000000 0.000000
d 1.000000
illum 2
Ns 0.000000
map_Kd wall_tex.bmp
map_Bump wall_NM.bmp

# num_materials: 1
